\relax 
\providecommand\hyper@newdestlabel[2]{}
\providecommand\HyperFirstAtBeginDocument{\AtBeginDocument}
\HyperFirstAtBeginDocument{\ifx\hyper@anchor\@undefined
\global\let\oldcontentsline\contentsline
\gdef\contentsline#1#2#3#4{\oldcontentsline{#1}{#2}{#3}}
\global\let\oldnewlabel\newlabel
\gdef\newlabel#1#2{\newlabelxx{#1}#2}
\gdef\newlabelxx#1#2#3#4#5#6{\oldnewlabel{#1}{{#2}{#3}}}
\AtEndDocument{\ifx\hyper@anchor\@undefined
\let\contentsline\oldcontentsline
\let\newlabel\oldnewlabel
\fi}
\fi}
\global\let\hyper@last\relax 
\gdef\HyperFirstAtBeginDocument#1{#1}
\providecommand\HyField@AuxAddToFields[1]{}
\providecommand\HyField@AuxAddToCoFields[2]{}
\@nameuse{bbl@beforestart}
\catcode `"\active 
\catcode `<\active 
\catcode `>\active 
\@nameuse{es@quoting}
\bibstyle{apacitex}
\citation{de_moya_hacia_2012}
\citation{aristoteles_tratados_1982}
\citation{aristoteles_tratados_1988}
\citation{copi_introduccion_1998}
\citation{mcguigan_psicologiexperimental._1996}
\citation{gardner_nueva_1987}
\citation{carretero_psicologipensamiento_2008}
\citation{gigerenzer_homo_2009}
\citation{van_eemeren_argumentation_1992}
\citation{van_eemeren_reconstructing_1993}
\citation{van_eemeren_systematic_2004}
\citation{van_eemeren_strategic_2010}
\citation{popper_logica_1962}
\citation{popper_conjeturas_1972}
\citation{lakatos_falsacion_2007}
\citation{feyerabend_tratado_1997}
\citation{apel_falibilismo_1991}
\citation{apel_etica_1991}
\citation{foucault_arqueologisaber_2010}
\citation{chomsky_linguistica_1972}
\citation{chomsky_lenguaje_1977}
\citation{de_la_campa_latinoamerica_1996}
\citation{newman_bakunin_2001}
\citation{newman_place_2004}
\citation{zadeh_fuzzy_1965}
\citation{ragin_comparative_1987}
\citation{ragin_fuzzy-set_2000}
\citation{ragin_redesigning_2008}
\citation{benoit_rihoux_configurational_2009}
\citation{capelletti_prehistoria_2006}
\citation{capelletti_ideologianarquista_2006}
\citation{bautista_gonzalez_perspectiva_2009}
\citation{bautista_gonzalez_minorias_2010}
\citation{bautista_gonzalez_procesos_2012}
\citation{bautista_gonzalez_psicologia_social_2018}
\citation{van_eemeren_strategic_2010}
\citation{copi_introduccion_1998}
\citation{martin-baro_accion_1985}
\citation{bautista_gonzalez_psicologia_social_2018}
\babel@aux{spanish}{}
\citation{copi_introduccion_1998}
\citation{aristoteles_tratados_1982}
\citation{aristoteles_tratados_1982}
\citation{van_eemeren_strategic_2010}
\citation{copi_introduccion_1998}
\citation{foucault_arqueologisaber_2010}
\citation{mercier_enigma_2017}
\citation{billig_arguing_1996}
\citation{copi_introduccion_1998}
\@writefile{toc}{\contentsline {section}{\numberline {1}Introducción}{2}{section.1}\protected@file@percent }
\newlabel{sec:Int}{{1}{2}{Introducción}{section.1}{}}
\citation{popper_conjeturas_1972}
\citation{popper_conjeturas_1972}
\citation{van_eemeren_strategic_2010}
\citation{van_eemeren_strategic_2010}
\@writefile{toc}{\contentsline {section}{\numberline {2}Uso básico del lenguaje}{3}{section.2}\protected@file@percent }
\@writefile{toc}{\contentsline {section}{\numberline {3}Falacias informales}{3}{section.3}\protected@file@percent }
\@writefile{toc}{\contentsline {subsection}{\numberline {3.1}Falacias de atinencia}{3}{subsection.3.1}\protected@file@percent }
\newlabel{sec:FalAti}{{3.1}{3}{Falacias de atinencia}{subsection.3.1}{}}
\@writefile{toc}{\contentsline {subsection}{\numberline {3.2}Falacias de ambigüedad}{4}{subsection.3.2}\protected@file@percent }
\newlabel{sec:FalAmb}{{3.2}{4}{Falacias de ambigüedad}{subsection.3.2}{}}
\citation{copi_introduccion_1998}
\citation{copi_introduccion_1998}
\@writefile{toc}{\contentsline {section}{\numberline {4}Definición}{5}{section.4}\protected@file@percent }
\@writefile{toc}{\contentsline {subsection}{\numberline {4.1}Definición por género y diferencia}{6}{subsection.4.1}\protected@file@percent }
\@writefile{toc}{\contentsline {section}{\numberline {5}Proposiciones categóricas}{6}{section.5}\protected@file@percent }
\@writefile{toc}{\contentsline {subsection}{\numberline {5.1}Cantidad, cualidad y distribución}{6}{subsection.5.1}\protected@file@percent }
\@writefile{toc}{\contentsline {subsection}{\numberline {5.2}Cuadrado de oposición clásico o aristotélico}{6}{subsection.5.2}\protected@file@percent }
\citation{gardner_nueva_1987}
\citation{chomsky_linguistica_1972}
\citation{chomsky_lenguaje_1977}
\citation{da_silveira_como_2004}
\@writefile{toc}{\contentsline {subsection}{\numberline {5.3}Cuadrado de oposición moderno o booleano}{7}{subsection.5.3}\protected@file@percent }
\@writefile{toc}{\contentsline {subsection}{\numberline {5.4}Otras inferencias inmediatas}{7}{subsection.5.4}\protected@file@percent }
\@writefile{toc}{\contentsline {section}{\numberline {6}Silogismos categóricos}{7}{section.6}\protected@file@percent }
\citation{foucault_arqueologisaber_2010}
\@writefile{toc}{\contentsline {section}{\numberline {7}Argumentos en el lenguaje ordinario}{8}{section.7}\protected@file@percent }
\@writefile{toc}{\contentsline {subsection}{\numberline {7.1}Entimemas}{8}{subsection.7.1}\protected@file@percent }
\@writefile{toc}{\contentsline {subsection}{\numberline {7.2}Sorites}{8}{subsection.7.2}\protected@file@percent }
\@writefile{toc}{\contentsline {subsection}{\numberline {7.3}Silogismos disyuntivo e hipotético}{8}{subsection.7.3}\protected@file@percent }
\newlabel{sec:SigDisHip}{{7.3}{8}{Silogismos disyuntivo e hipotético}{subsection.7.3}{}}
\@writefile{toc}{\contentsline {subsection}{\numberline {7.4}Traducciones del lenguaje ordinario y modelos mentales silogísticos}{9}{subsection.7.4}\protected@file@percent }
\@writefile{toc}{\contentsline {section}{\numberline {8}Lógica simbólica}{9}{section.8}\protected@file@percent }
\@writefile{toc}{\contentsline {section}{\numberline {9}El método de la deducción}{9}{section.9}\protected@file@percent }
\newlabel{sec:MetDed}{{9}{9}{El método de la deducción}{section.9}{}}
\@writefile{toc}{\contentsline {subsection}{\numberline {9.1}Reglas de inferencia}{10}{subsection.9.1}\protected@file@percent }
\@writefile{toc}{\contentsline {subsection}{\numberline {9.2}Reglas de reemplazo}{10}{subsection.9.2}\protected@file@percent }
\@writefile{toc}{\contentsline {subsection}{\numberline {9.3}Prueba de invalidez}{10}{subsection.9.3}\protected@file@percent }
\@writefile{toc}{\contentsline {subsection}{\numberline {9.4}Inconsistencia}{11}{subsection.9.4}\protected@file@percent }
\@writefile{toc}{\contentsline {section}{\numberline {10}Teoría de la cuantificación}{11}{section.10}\protected@file@percent }
\newlabel{sec:TeoCua}{{10}{11}{Teoría de la cuantificación}{section.10}{}}
\@writefile{toc}{\contentsline {subsection}{\numberline {10.1}Reglas de cuantificación}{11}{subsection.10.1}\protected@file@percent }
\citation{copi_introduccion_1998}
\citation{copi_introduccion_1998}
\citation{copi_introduccion_1998}
\@writefile{toc}{\contentsline {subsection}{\numberline {10.2}Inferencia ``asilogística''}{12}{subsection.10.2}\protected@file@percent }
\@writefile{toc}{\contentsline {section}{\numberline {11}Analogía e inferencia probable}{12}{section.11}\protected@file@percent }
\@writefile{toc}{\contentsline {subsection}{\numberline {11.1}Evaluación de argumentos analógicos}{12}{subsection.11.1}\protected@file@percent }
\@writefile{toc}{\contentsline {section}{\numberline {12}Conexiones causales: los métodos de Mill como referentes del diseño experimental}{12}{section.12}\protected@file@percent }
\citation{zadeh_fuzzy_1965}
\citation{ragin_comparative_1987}
\citation{ragin_fuzzy-set_2000}
\citation{ragin_redesigning_2008}
\@writefile{toc}{\contentsline {subsection}{\numberline {12.1}Método de concordancia}{13}{subsection.12.1}\protected@file@percent }
\@writefile{toc}{\contentsline {subsection}{\numberline {12.2}Método de la diferencia}{13}{subsection.12.2}\protected@file@percent }
\@writefile{toc}{\contentsline {subsection}{\numberline {12.3}Método conjunto de la concordancia y la diferencia}{13}{subsection.12.3}\protected@file@percent }
\@writefile{toc}{\contentsline {subsection}{\numberline {12.4}Método de los residuos}{13}{subsection.12.4}\protected@file@percent }
\@writefile{toc}{\contentsline {subsection}{\numberline {12.5}Método de la variación concomitante}{13}{subsection.12.5}\protected@file@percent }
\@writefile{toc}{\contentsline {subsection}{\numberline {12.6}Cuidados con los métodos de Mill}{13}{subsection.12.6}\protected@file@percent }
\@writefile{toc}{\contentsline {section}{\numberline {13}Integraciones difusas y polivalentes al sistema deductivo de las ciencias sociales}{13}{section.13}\protected@file@percent }
\@writefile{toc}{\contentsline {section}{\numberline {14}Ciencia e hipótesis}{13}{section.14}\protected@file@percent }
\@writefile{toc}{\contentsline {subsection}{\numberline {14.1}Evaluación de las explicaciones científicas}{13}{subsection.14.1}\protected@file@percent }
\citation{mcguigan_psicologiexperimental._1996}
\citation{martin-baro_accion_1985}
\citation{bautista_gonzalez_perspectiva_2009}
\@writefile{toc}{\contentsline {subsection}{\numberline {14.2}La aventura como ciencia}{14}{subsection.14.2}\protected@file@percent }
\@writefile{toc}{\contentsline {section}{\numberline {15}Probabilidad}{14}{section.15}\protected@file@percent }
\newlabel{sec:Prob}{{15}{14}{Probabilidad}{section.15}{}}
\@writefile{toc}{\contentsline {subsection}{\numberline {15.1}Eventos simultáneos}{14}{subsection.15.1}\protected@file@percent }
\@writefile{toc}{\contentsline {subsection}{\numberline {15.2}Ocurrencias alternativas}{14}{subsection.15.2}\protected@file@percent }
\@writefile{toc}{\contentsline {subsection}{\numberline {15.3}Esperanza o valor esperado}{14}{subsection.15.3}\protected@file@percent }
\@writefile{toc}{\contentsline {section}{\numberline {16}La epistética en Psicología y en Sociología}{14}{section.16}\protected@file@percent }
\citation{gardner_nueva_1987}
\citation{gardner_nueva_1987}
\@writefile{toc}{\contentsline {subsection}{\numberline {16.1}Pensamiento y razonamiento}{15}{subsection.16.1}\protected@file@percent }
\@writefile{toc}{\contentsline {subsection}{\numberline {16.2}El razonamiento deductivo en Psicología}{15}{subsection.16.2}\protected@file@percent }
\@writefile{toc}{\contentsline {subsection}{\numberline {16.3}Razonamiento inductivo en Psicología}{15}{subsection.16.3}\protected@file@percent }
\citation{foucault_arqueologisaber_2010}
\citation{foucault_arqueologisaber_2010}
\@writefile{toc}{\contentsline {subsection}{\numberline {16.4}Estudio del discurso argumentativo}{16}{subsection.16.4}\protected@file@percent }
\@writefile{toc}{\contentsline {subsection}{\numberline {16.5}Discurso y arqueología}{16}{subsection.16.5}\protected@file@percent }
\newlabel{sec:DisArq}{{16.5}{16}{Discurso y arqueología}{subsection.16.5}{}}
\citation{van_eemeren_argumentation_1992}
\citation{van_eemeren_reconstructing_1993}
\citation{van_eemeren_systematic_2004}
\citation{van_eemeren_strategic_2010}
\citation{instituto_cervantes_actos_2019}
\citation{instituto_cervantes_actos_2019}
\citation{instituto_cervantes_actos_2019}
\citation{van_eemeren_speech_1984}
\citation{van_eemeren_strategic_2010}
\citation{van_eemeren_systematic_2004}
\citation{van_eemeren_argumentation_2018}
\@writefile{toc}{\contentsline {subsection}{\numberline {16.6}Argumentación razonable desde la Sociología}{17}{subsection.16.6}\protected@file@percent }
\newlabel{sec:ArgRazSoc}{{16.6}{17}{Argumentación razonable desde la Sociología}{subsection.16.6}{}}
\citation{van_eemeren_argumentation_2018}
\citation{van_eemeren_strategic_2010}
\citation{van_eemeren_argumentation_2018}
\citation{van_eemeren_argumentation_1992}
\citation{van_eemeren_systematic_2004}
\citation{reisigl_argumentation_2014}
\citation{van_eemeren_argumentation_1992}
\citation{van_eemeren_systematic_2004}
\citation{van_eemeren_argumentation_2018}
\citation{van_eemeren_argumentation_2018}
\citation{van_eemeren_argumentation_2018}
\citation{van_eemeren_argumentation_1992}
\citation{van_eemeren_strategic_2010}
\citation{van_eemeren_argumentation_2018}
\citation{van_eemeren_maniobra_2012}
\citation{van_eemeren_argumentation_2018}
\citation{bautista_gonzalez_minorias_2010}
\citation{foucault_arqueologisaber_2010}
\citation{foucault_arqueologisaber_2010}
\citation{foucault_arqueologisaber_2010}
\citation{foucault_arqueologisaber_2010}
\@writefile{toc}{\contentsline {subsection}{\numberline {16.7}El uso metodológico de la lógica en sociología}{22}{subsection.16.7}\protected@file@percent }
\@writefile{toc}{\contentsline {subsection}{\numberline {16.8}La argumentación como instrumento de pensamiento y de razonamiento propositivo}{22}{subsection.16.8}\protected@file@percent }
\@writefile{toc}{\contentsline {section}{\numberline {17}Entre el tratamiento enunciativo y las maniobras estratégicas}{22}{section.17}\protected@file@percent }
\citation{bautista_gonzalez_psicologia_social_2018}
\citation{van_eemeren_strategic_2010}
\citation{mercier_enigma_2017}
\citation{van_eemeren_strategic_2010}
\citation{newman_place_2004}
\citation{apel_falibilismo_1991}
\bibdata{Referencias.bib}
\bibcite{apel_falibilismo_1991}{{1}{{\APACyear {1991}}{\APACexlab {{\BCnt {1}}}}}{{Apel}}{{Apel}}}
\bibcite{apel_etica_1991}{{2}{{\APACyear {1991}}{\APACexlab {{\BCnt {2}}}}}{{Apel}}{{Apel}}}
\bibcite{aristoteles_tratados_1982}{{3}{{\APACyear {1982}}}{{{Aristóteles}}}{{{Aristóteles}}}}
\bibcite{aristoteles_tratados_1988}{{4}{{\APACyear {1988}}}{{{Aristóteles}}}{{{Aristóteles}}}}
\bibcite{bautista_gonzalez_perspectiva_2009}{{5}{{\APACyear {2009}}}{{Bautista~González}}{{Bautista~González}}}
\bibcite{bautista_gonzalez_minorias_2010}{{6}{{\APACyear {2010}}}{{Bautista~González}}{{Bautista~González}}}
\bibcite{bautista_gonzalez_procesos_2012}{{7}{{\APACyear {2012}}}{{Bautista~González}}{{Bautista~González}}}
\bibcite{bautista_gonzalez_psicologia_social_2018}{{8}{{\APACyear {2018}}}{{Bautista~González}}{{Bautista~González}}}
\bibcite{billig_arguing_1996}{{9}{{\APACyear {1996}}}{{Billig}}{{Billig}}}
\bibcite{capelletti_ideologianarquista_2006}{{10}{{\APACyear {2006}}{\APACexlab {{\BCnt {1}}}}}{{Capelletti}}{{Capelletti}}}
\bibcite{capelletti_prehistoria_2006}{{11}{{\APACyear {2006}}{\APACexlab {{\BCnt {2}}}}}{{Capelletti}}{{Capelletti}}}
\bibcite{carretero_psicologipensamiento_2008}{{12}{{\APACyear {2008}}}{{Carretero\ \BBA  {} Asencio}}{{Carretero\ \BBA  {} Asencio}}}
\bibcite{chomsky_linguistica_1972}{{13}{{\APACyear {1972}}}{{Chomsky}}{{Chomsky}}}
\bibcite{chomsky_lenguaje_1977}{{14}{{\APACyear {1977}}}{{Chomsky}}{{Chomsky}}}
\bibcite{copi_introduccion_1998}{{15}{{\APACyear {1998}}}{{Copi\ \BBA  {} Cohen}}{{Copi\ \BBA  {} Cohen}}}
\bibcite{da_silveira_como_2004}{{16}{{\APACyear {2004}}}{{da Silveira}}{{da Silveira}}}
\bibcite{de_la_campa_latinoamerica_1996}{{17}{{\APACyear {1996}}}{{de~la Campa}}{{de~la Campa}}}
\bibcite{de_moya_hacia_2012}{{18}{{\APACyear {2012}}}{{de Moya}}{{de Moya}}}
\bibcite{feyerabend_tratado_1997}{{19}{{\APACyear {1997}}}{{Feyerabend}}{{Feyerabend}}}
\bibcite{foucault_arqueologisaber_2010}{{20}{{\APACyear {2010}}}{{Foucault}}{{Foucault}}}
\bibcite{gardner_nueva_1987}{{21}{{\APACyear {1987}}}{{Gardner}}{{Gardner}}}
\bibcite{gigerenzer_homo_2009}{{22}{{\APACyear {2009}}}{{Gigerenzer\ \BBA  {} Brighton}}{{Gigerenzer\ \BBA  {} Brighton}}}
\bibcite{instituto_cervantes_actos_2019}{{23}{{\APACyear {2019}}}{{{Instituto Cervantes}}}{{{Instituto Cervantes}}}}
\bibcite{lakatos_falsacion_2007}{{24}{{\APACyear {2007}}}{{Lakatos}}{{Lakatos}}}
\bibcite{martin-baro_accion_1985}{{25}{{\APACyear {1985}}}{{Martín-Baró}}{{Martín-Baró}}}
\bibcite{mcguigan_psicologiexperimental._1996}{{26}{{\APACyear {1996}}}{{{McGuigan}}}{{{McGuigan}}}}
\bibcite{mercier_enigma_2017}{{27}{{\APACyear {2017}}}{{Mercier\ \BBA  {} Sperber}}{{Mercier\ \BBA  {} Sperber}}}
\bibcite{newman_bakunin_2001}{{28}{{\APACyear {2001}}}{{Newman}}{{Newman}}}
\bibcite{newman_place_2004}{{29}{{\APACyear {2004}}}{{Newman}}{{Newman}}}
\bibcite{popper_logica_1962}{{30}{{\APACyear {1962}}}{{Popper}}{{Popper}}}
\bibcite{popper_conjeturas_1972}{{31}{{\APACyear {1972}}}{{Popper}}{{Popper}}}
\bibcite{ragin_comparative_1987}{{32}{{\APACyear {1987}}}{{Ragin}}{{Ragin}}}
\bibcite{ragin_fuzzy-set_2000}{{33}{{\APACyear {2000}}}{{Ragin}}{{Ragin}}}
\bibcite{ragin_redesigning_2008}{{34}{{\APACyear {2008}}}{{Ragin}}{{Ragin}}}
\bibcite{reisigl_argumentation_2014}{{35}{{\APACyear {2014}}}{{Reisigl}}{{Reisigl}}}
\bibcite{benoit_rihoux_configurational_2009}{{36}{{\APACyear {2009}}}{{Rihoux\ \BBA  {} Ragin}}{{Rihoux\ \BBA  {} Ragin}}}
\bibcite{van_eemeren_strategic_2010}{{37}{{\APACyear {2010}}}{{van Eemeren}}{{van Eemeren}}}
\bibcite{van_eemeren_maniobra_2012}{{38}{{\APACyear {2012}}}{{van Eemeren}}{{van Eemeren}}}
\bibcite{van_eemeren_argumentation_2018}{{39}{{\APACyear {2018}}}{{van Eemeren}}{{van Eemeren}}}
\bibcite{van_eemeren_speech_1984}{{40}{{\APACyear {1984}}}{{van Eemeren\ \BBA  {} Grootendorst}}{{van Eemeren\ \BBA  {} Grootendorst}}}
\bibcite{van_eemeren_argumentation_1992}{{41}{{\APACyear {1992}}}{{van Eemeren\ \BBA  {} Grootendorst}}{{van Eemeren\ \BBA  {} Grootendorst}}}
\bibcite{van_eemeren_systematic_2004}{{42}{{\APACyear {2004}}}{{van Eemeren\ \BBA  {} Grootendorst}}{{van Eemeren\ \BBA  {} Grootendorst}}}
\bibcite{van_eemeren_reconstructing_1993}{{43}{{\APACyear {1993}}}{{van Eemeren\ \BOthers {.}}}{{van Eemeren, Grootendorst, Jackson,{}\ \BBA  {} Jacobs}}}
\bibcite{zadeh_fuzzy_1965}{{44}{{\APACyear {1965}}}{{Zadeh}}{{Zadeh}}}
