\BOOKMARK [1][-]{section.1}{Introducci\363n}{}% 1
\BOOKMARK [1][-]{section.2}{Uso b\341sico del lenguaje}{}% 2
\BOOKMARK [1][-]{section.3}{Falacias informales}{}% 3
\BOOKMARK [1][-]{section.4}{Definici\363n}{}% 4
\BOOKMARK [1][-]{section.5}{Proposiciones categ\363ricas}{}% 5
\BOOKMARK [1][-]{section.6}{Silogismos categ\363ricos}{}% 6
\BOOKMARK [1][-]{section.7}{Argumentos en el lenguaje ordinario}{}% 7
\BOOKMARK [1][-]{section.8}{L\363gica simb\363lica}{}% 8
\BOOKMARK [1][-]{section.9}{El m\351todo de la deducci\363n}{}% 9
\BOOKMARK [1][-]{section.10}{Teor\355a de la cuantificaci\363n}{}% 10
\BOOKMARK [1][-]{section.11}{Analog\355a e inferencia probable}{}% 11
\BOOKMARK [1][-]{section.12}{Conexiones causales: los m\351todos de Mill como referentes del dise\361o experimental}{}% 12
\BOOKMARK [1][-]{section.13}{Integraciones difusas y polivalentes al sistema deductivo de las ciencias sociales}{}% 13
\BOOKMARK [1][-]{section.14}{Ciencia e hip\363tesis}{}% 14
\BOOKMARK [1][-]{section.15}{Probabilidad}{}% 15
\BOOKMARK [1][-]{section.16}{La epist\351tica en Psicolog\355a y en Sociolog\355a}{}% 16
\BOOKMARK [1][-]{section.17}{Entre el tratamiento enunciativo y las maniobras estrat\351gicas}{}% 17
